{
  "metadata": [
    {
      "src": [
        {
          "files": [
            "Plugins/Rayark/Mast/**/**.cs"
          ],
          "exclude" :[
            "Plugins/Rayark/Mast/Editor/**/**.*"
          ],
          "src" : "../Assets"
        }
      ],
      "dest": "api",
      "disableGitFeatures": false
    }
  ],
  "build": {
    "content": [
      {
        "files": [
          "api/**.yml",
          "api/*.md"
        ]
      },
      {
        "files": [
          "guides/**.md",
          "guides/**/toc.yml",
          "toc.yml",
          "*.md"
        ]
      }
    ],
    "resource": [
      {
        "files": [
          "images/**"
        ]
      }
    ],
    "overwrite": [
      {
        "files": [
          "apidoc/**.md"
        ],
        "exclude": [
          "obj/**",
          "_site/**"
        ]
      }
    ],
    "dest": "_site",
    "globalMetadataFiles": [],
    "fileMetadataFiles": [],
    "template": [
      "templates/default"
    ],
    "postProcessors": [],
    "noLangKeyword": false,
    "keepFileLink": false,
    "cleanupCacheHistory": false,
    "disableGitFeatures": false,
    "xrefService": [
      "https://xref.docs.microsoft.com/query?uid={uid}"
    ]
  }
}